%YAML 1.1
%TAG !u! tag:unity3d.com,2011:
--- !u!1045 &1
EditorBuildSettings:
  m_ObjectHideFlags: 0
  serializedVersion: 2
  m_Scenes:
  - enabled: 1
    path: Assets/_Test Coroutine Streaming/Scenes/Stream Test HOME.unity
    guid: fcfff331c952e3347aa71d14a4f41dd6
  - enabled: 1
    path: Assets/_Test Coroutine Streaming/Scenes/Streaming Image 1.unity
    guid: 1a356fb17df122e4e93078c8dd2749f5
  - enabled: 1
    path: Assets/_Test Coroutine Streaming/Scenes/Streaming Image List 512.unity
    guid: bbe0762c31a144e47bb3117ef444466b
  - enabled: 1
    path: Assets/_Test Coroutine Streaming/Scenes/Streaming Image List 4K.unity
    guid: bb9a35dc6adea6344851bef1db5e0b55
  m_configObjects: {}
